<?xml version="1.0" encoding="UTF-8" standalone="no"?>
<svg
   xmlns:dc="http://purl.org/dc/elements/1.1/"
   xmlns:cc="http://creativecommons.org/ns#"
   xmlns:rdf="http://www.w3.org/1999/02/22-rdf-syntax-ns#"
   xmlns:svg="http://www.w3.org/2000/svg"
   xmlns="http://www.w3.org/2000/svg"
   width="100"
   height="100"
   viewBox="0 0 26.4583327245 26.458334081"
   version="1.1"
   id="svg8">
  <defs
     id="defs2" />
  <metadata
     id="metadata5">
    <rdf:RDF>
      <cc:Work
         rdf:about="">
        <dc:format>image/svg+xml</dc:format>
        <dc:type
           rdf:resource="http://purl.org/dc/dcmitype/StillImage" />
        <dc:title></dc:title>
      </cc:Work>
    </rdf:RDF>
  </metadata>
  <g
     style="stroke:#000000;stroke-opacity:1;stroke-width:1.0000000026;stroke-miterlimit:4;stroke-dasharray:none"
     id="layer1"
     transform="translate(0,-270.541649882)">
    <circle
       style="opacity:1;fill:none;fill-opacity:1;fill-rule:nonzero;stroke:#000000;stroke-width:1.0000000026;stroke-linecap:round;stroke-linejoin:round;stroke-miterlimit:4;stroke-dasharray:none;stroke-dashoffset:0;stroke-opacity:1"
       id="path4518"
       cx="13.2291669846"
       cy="283.770812988"
       r="12.7291669846" />
  </g>
  <g
     transform="translate(-0.248672110156)"
     id="g1012">
    <path
       style="opacity:1;fill:none;fill-opacity:1;fill-rule:nonzero;stroke:#000000;stroke-width:1;stroke-linecap:round;stroke-linejoin:round;stroke-miterlimit:4;stroke-dasharray:none;stroke-dashoffset:0;stroke-opacity:1"
       id="path993"
       d="m 13.7857098579,13.2291669846 -4.5089024305,2.603216032 -4.50890243053,2.603216032 0,-5.2064320641 0,-5.20643206398 4.50890243055,2.60321603198 z" />
    <path
       style="opacity:1;fill:none;fill-opacity:1;fill-rule:nonzero;stroke:#000000;stroke-width:1;stroke-linecap:round;stroke-linejoin:round;stroke-miterlimit:4;stroke-dasharray:none;stroke-dashoffset:0;stroke-opacity:1"
       id="path993-6"
       d="m 22.7842717171,13.0473222733 -4.5089024306,2.603216032 -4.5089024305,2.603216032 0,-5.2064320641 0,-5.20643206398 4.5089024305,2.60321603198 z"
       transform="rotate(60,17.8196378468,15.2248771533)" />
  </g>
</svg>
