ELEC;Electricité
ELECECL;Eclairage public
ELECSLT;Signalisation électrique tricolore basse tension
ELECTRD;Electricité transport/distribution
GAZ;Gaz
CHIM;Produits chimiques
AEP;Eau potable
ASS;Assainissement et pluvial
ASSEP;Eaux pluviales
ASSEU;Eaux usées
CHAU;Chauffage et climatisation
COM;Télécom et signalisation lumineuse tricolore TBT
DECH;Déchets
AUTREAU;Incendie, Irrigation, Eau brute, Eau salée, Eau non chlorée
PINS;Ouvrage de protection inondation Submersion
MULT;Multi réseaux
0;Non défini
